scenario.number,Number.of.shortage.and.surplus.events,Avg.number.of.shortage.and.surplus.per.nonideal.ride.user,Number.of.ideal.rides,Ideal.ride.ratio,Excess.time
0,72,0.17819148936170212,2087,0.8473406414941129,106116.79244440186
1,98,0.20212765957446807,2046,0.8131955484896661,144768.21829730668
2,95,0.21951219512195122,2051,0.8334010564811053,129369.88346411468
3,77,0.1918918918918919,2134,0.8522364217252396,112544.12682418797
4,97,0.182,2046,0.8036135113904164,148780.55185514444
5,94,0.20179372197309417,2071,0.8228049264998013,138725.41361062226
6,101,0.2325,2024,0.834983498349835,112063.85026155079
7,109,0.20850202429149797,2091,0.8088974854932302,139770.8499802294
8,82,0.1807511737089202,2028,0.8264058679706602,107391.63832164233
9,76,0.17274939172749393,2051,0.8330625507717303,110486.37865113145
